Online Training in Data Science Using R
…
layout: true
class: inverse

.footer[Slides available at http://bit.ly/osu-ismay18]

---

```r
library(moderndive)
bowl
```

```
# A tibble: 2,400 x 2
   ball_ID color
     <int> <chr>
 1       1 white
 2       2 white
 3       3 white
 4       4 red  
 5       5 white
 6       6 white
 7       7 red  
 8       8 white
 9       9 red  
10      10 white
# ... with 2,390 more rows
```

---

## One virtual scoop of 50 balls

```r
set.seed(1977)
( bowl_sample <- bowl %>% sample_n(size = 50) )
```

```
# A tibble: 50 x 2
   ball_ID color
     <int> <chr>
 1    1193 white
 2    1293 white
 3    1658 red  
 4     331 red  
 5    1020 white
 6    2224 red  
 7     887 white
 8    1008 red  
 9     514 white
10     993 red  
# ... with 40 more rows
```
…
---

# Building up to statistical inference!

```r
library(infer)
bowl_sample %>% 
  specify(formula = color ~ NULL, success = "red")
```

```
Response:  color 
# A tibble: 50 x 1
   color
   <fct>
 1 white
 2 white
 3 red  
 4 red  
 5 white
 6 red  
 7 white
 8 red  
 9 white
10 red  
# ... with 40 more rows
```

---

# Bootstrapping?

```r
library(infer)
( bootstrap_samples <- bowl_sample %>% 
  specify(formula = color ~ NULL, success = "red") %>% 
  generate(reps = 48, type = "bootstrap") )
```

```
# A tibble: 2,400 x 2
# Groups:   replicate [48]
   replicate color
       <int> <fct>
 1         1 red  
 2         1 red  
 3         1 white
 4         1 white
 5         1 red  
 6         1 white
 7         1 white
 8         1 white
 9         1 red  
10         1 red  
# ... with 2,390 more rows
```
…
---

## Bootstrap statistics

```r
bowl_sample %>% 
  specify(formula = color ~ NULL, success = "red") %>% 
  generate(reps = 48, type = "bootstrap") %>% 
  calculate(stat = "prop")
```

```
# A tibble: 48 x 2
   replicate  stat
       <int> <dbl>
 1         1 0.360
 2         2 0.280
 3         3 0.440
 4         4 0.240
 5         5 0.400
 6         6 0.300
 7         7 0.300
 8         8 0.400
 9         9 0.400
10        10 0.360
# ... with 38 more rows
```
…
