Tidyverse Tools in R for Data Science and Statistical Inference
…
???

- Here is an example where we want to filter on year. The arguments are going to be the filters that we want to apply.
- CLICK  Note that we have to use the double equal sign to tell R we want a true/false statement. We can also see the output of the filter statement is again a tibble, this time with fewer rows because we’ve only taken the subset with year equal to 2014. Using the pipe however lets us easily keep going with our functions and we don’t really need to save this subset data to do our next step.

--

```r
gap_2014 <- gapminder %>% filter(year == 2014)
gap_2014
```

```
# A tibble: 185 x 9
  country              year infant_mortality life_expectancy
  <fct>               <int>            <dbl>           <dbl>
1 Albania              2014             12.9            77.9
2 Algeria              2014             22              76.3
3 Angola               2014             98.8            59.2
4 Antigua and Barbuda  2014              6.1            76.3
5 Argentina            2014             11.5            76.3
# … with 180 more rows, and 5 more variables: fertility <dbl>,
#   population <dbl>, gdp <dbl>, continent <fct>, region <fct>
```
…
???

- All of the functions so far have significantly changed the data in some way, through subsetting or summarizing, or mutating. But sometimes you just want to sort your data. Rather than opening it in excel, an easy way in the tidyverse is just using the arrange function. We can arrange or sort based on one or multiple variables, or even functions of variables.
- CLICK: Here’s a simple example where we sort first on year and then within the same year we sort on country. The default is to use an ascending sort .

--

```r
gapminder_plus %>%
  arrange(year, country)
```

```
# A tibble: 10,545 x 10
  country              year infant_mortality life_expectancy
  <fct>               <int>            <dbl>           <dbl>
1 Albania              1960            115.             62.9
2 Algeria              1960            148.             47.5
3 Angola               1960            208              36.0
4 Antigua and Barbuda  1960             NA              63.0
5 Argentina            1960             59.9            65.4
# … with 10,540 more rows, and 6 more variables:
#   fertility <dbl>, population <dbl>, gdp <dbl>,
#   continent <fct>, region <fct>, gdp_per_capita <dbl>
```
…
???

If we want descending arrangement, we can use this desc function. Pretty simple.

--

```r
gapminder_plus %>%
  filter(year > 2000) %>%
  arrange(desc(life_expectancy))
```

```
# A tibble: 2,960 x 10
  country           year infant_mortality life_expectancy
  <fct>            <int>            <dbl>           <dbl>
1 Hong Kong, China  2016             NA              83.9
2 Hong Kong, China  2015             NA              83.7
3 Hong Kong, China  2014             NA              83.6
4 Hong Kong, China  2013             NA              83.4
5 Iceland           2014              1.6            83.3
# … with 2,955 more rows, and 6 more variables: fertility <dbl>,
#   population <dbl>, gdp <dbl>, continent <fct>, region <fct>,
#   gdp_per_capita <dbl>
```
…
Ok just an aside, that arrange can sort the data for you, and you can save the output so now your data has been changed in the sense that the order of the rows is now different. However, this is not the same thing as group_by. Group_by is mostly a helper function that can be used with summarize to compute data summaries by a factor. If you use group_by() on a data set, the attributes actually change behind the scenes, but you won’t see any difference in the order it is printed. 

---

## Don't mix up `arrange()` and `group_by()`

This doesn't really do anything useful by itself

```r
gapminder %>% group_by(country)
```

```
# A tibble: 10,545 x 9
# Groups:   country [185]
  country              year infant_mortality life_expectancy
  <fct>               <int>            <dbl>           <dbl>
1 Albania              1960            115.             62.9
2 Algeria              1960            148.             47.5
3 Angola               1960            208              36.0
4 Antigua and Barbuda  1960             NA              63.0
5 Argentina            1960             59.9            65.4
# … with 10,540 more rows, and 5 more variables:
#   fertility <dbl>, population <dbl>, gdp <dbl>,
#   continent <fct>, region <fct>
```
…
You can try it by using group_by() instead of arrange and printing the resulting tibble. It won’t look any different, but R will tell you that it has been grouped.

---

## Don't mix up `arrange()` and `group_by()`

But this does

```r
gapminder %>% arrange(country)
```

```
# A tibble: 10,545 x 9
  country  year infant_mortality life_expectancy fertility
  <fct>   <int>            <dbl>           <dbl>     <dbl>
1 Albania  1960            115.             62.9      6.19
2 Albania  1961            111.             63.9      6.08
3 Albania  1962            106.             64.8      5.96
4 Albania  1963            102.             65.6      5.83
5 Albania  1964             97.9            66.2      5.71
# … with 10,540 more rows, and 4 more variables:
#   population <dbl>, gdp <dbl>, continent <fct>, region <fct>
```
…
---

name: select

## `select()`

- Chooses a subset of _columns_ (don't mix up with `filter()`)

```r
gapminder_plus %>% 
  select(country, region, gdp_per_capita)
```

```
# A tibble: 10,545 x 3
  country             region          gdp_per_capita
  <fct>               <fct>                    <dbl>
1 Albania             Southern Europe            NA 
2 Algeria             Northern Africa          1243.
3 Angola              Middle Africa              NA 
4 Antigua and Barbuda Caribbean                  NA 
5 Argentina           South America            5254.
# … with 10,540 more rows
```
…
---

## One virtual scoop of 50 balls (one sample)

```r
set.seed(8675309)
(jennys_sample <- bowl %>% slice_sample(n = 50))
```

```
# A tibble: 50 x 2
  ball_ID color
    <int> <chr>
1    2260 white
2     970 white
3    1291 white
4    1216 white
5    2217 red  
# … with 45 more rows
```
…
### How could we use this sample to make a guess about the sampling variability from other samples?

---

## Building up to statistical inference!

```r
library(infer)
jennys_sample %>%
  specify(formula = color ~ NULL, success = "red")
```

```
Response: color (factor)
# A tibble: 50 x 1
  color
  <fct>
1 white
2 white
3 white
4 white
5 red  
# … with 45 more rows
```

---

## Bootstrapping?

```r
library(infer)
(bootstrap_samples <- jennys_sample %>%
  specify(formula = color ~ NULL, success = "red") %>%
  generate(reps = 48, type = "bootstrap"))
```

```
Response: color (factor)
# A tibble: 2,400 x 2
# Groups:   replicate [48]
  replicate color
      <int> <fct>
1         1 red  
2         1 white
3         1 white
4         1 white
5         1 white
# … with 2,395 more rows
```
…
---

## Bootstrap statistics

```r
jennys_sample %>%
  specify(formula = color ~ NULL, success = "red") %>%
  generate(reps = 48, type = "bootstrap") %>%
  calculate(stat = "prop")
```

```
# A tibble: 48 x 2
  replicate  stat
*     <int> <dbl>
1         1  0.24
2         2  0.34
3         3  0.34
4         4  0.4 
5         5  0.28
# … with 43 more rows
```
…
