Statistical Inference: A Tidy Approach
…
.footer[Slides available at http://bit.ly/ness-infer &emsp; &emsp; &emsp; [Return to Table of Contents](#toc)]

---

## The [`gapminder` package](https://github.com/jennybc/gapminder)

```r
library(gapminder)
gapminder
```

```
# A tibble: 1,704 x 6
   country     continent  year lifeExp      pop gdpPercap
   <fct>       <fct>     <int>   <dbl>    <int>     <dbl>
 1 Afghanistan Asia       1952    28.8  8425333      779.
 2 Afghanistan Asia       1957    30.3  9240934      821.
 3 Afghanistan Asia       1962    32.0 10267083      853.
 4 Afghanistan Asia       1967    34.0 11537966      836.
 5 Afghanistan Asia       1972    36.1 13079460      740.
 6 Afghanistan Asia       1977    38.4 14880372      786.
 7 Afghanistan Asia       1982    39.9 12881816      978.
 8 Afghanistan Asia       1987    40.8 13867957      852.
 9 Afghanistan Asia       1992    41.7 16317921      649.
10 Afghanistan Asia       1997    41.8 22227415      635.
# ... with 1,694 more rows
```
…
---

name: arrange

## `arrange()`

- Reorders the rows in a data frame based on the values of one or more variables
--

```r
gapminder %>% arrange(year, country)
```

```
# A tibble: 1,704 x 6
   country     continent  year lifeExp      pop gdpPercap
   <fct>       <fct>     <int>   <dbl>    <int>     <dbl>
 1 Afghanistan Asia       1952    28.8  8425333      779.
 2 Albania     Europe     1952    55.2  1282697     1601.
 3 Algeria     Africa     1952    43.1  9279525     2449.
 4 Angola      Africa     1952    30.0  4232095     3521.
 5 Argentina   Americas   1952    62.5 17876956     5911.
 6 Australia   Oceania    1952    69.1  8691212    10040.
 7 Austria     Europe     1952    66.8  6927772     6137.
 8 Bahrain     Asia       1952    50.9   120447     9867.
 9 Bangladesh  Asia       1952    37.5 46886859      684.
10 Belgium     Europe     1952    68.0  8730405     8343.
# ... with 1,694 more rows
```
…
- `arrange` is used for sorting

---

## Don't mix up `arrange` and `group_by`

This doesn't really do anything useful

```r
gapminder %>% group_by(year)
```

```
# A tibble: 1,704 x 6
# Groups:   year [12]
   country     continent  year lifeExp      pop gdpPercap
   <fct>       <fct>     <int>   <dbl>    <int>     <dbl>
 1 Afghanistan Asia       1952    28.8  8425333      779.
 2 Afghanistan Asia       1957    30.3  9240934      821.
 3 Afghanistan Asia       1962    32.0 10267083      853.
 4 Afghanistan Asia       1967    34.0 11537966      836.
 5 Afghanistan Asia       1972    36.1 13079460      740.
 6 Afghanistan Asia       1977    38.4 14880372      786.
 7 Afghanistan Asia       1982    39.9 12881816      978.
 8 Afghanistan Asia       1987    40.8 13867957      852.
 9 Afghanistan Asia       1992    41.7 16317921      649.
10 Afghanistan Asia       1997    41.8 22227415      635.
# ... with 1,694 more rows
```

---

## Don't mix up `arrange` and `group_by`

But this does

```r
gapminder %>% arrange(year)
```

```
# A tibble: 1,704 x 6
   country     continent  year lifeExp      pop gdpPercap
   <fct>       <fct>     <int>   <dbl>    <int>     <dbl>
 1 Afghanistan Asia       1952    28.8  8425333      779.
 2 Albania     Europe     1952    55.2  1282697     1601.
 3 Algeria     Africa     1952    43.1  9279525     2449.
 4 Angola      Africa     1952    30.0  4232095     3521.
 5 Argentina   Americas   1952    62.5 17876956     5911.
 6 Australia   Oceania    1952    69.1  8691212    10040.
 7 Austria     Europe     1952    66.8  6927772     6137.
 8 Bahrain     Asia       1952    50.9   120447     9867.
 9 Bangladesh  Asia       1952    37.5 46886859      684.
10 Belgium     Europe     1952    68.0  8730405     8343.
# ... with 1,694 more rows
```
…
<center>
<a href="http://moderndive.com/images/sampling_bowl.jpeg">
<img src="img/sampling_bowl.jpeg" style = "width: 380px;"/>
</a>
</center>

---

```r
library(moderndive)
bowl
```

```
# A tibble: 2,400 x 2
   ball_ID color
     <int> <chr>
 1       1 white
 2       2 white
 3       3 white
 4       4 red  
 5       5 white
 6       6 white
 7       7 red  
 8       8 white
 9       9 red  
10      10 white
# ... with 2,390 more rows
```

---

## One virtual scoop of 50 balls

```r
set.seed(1977)
( bowl_sample <- bowl %>% sample_n(size = 50) )
```

```
# A tibble: 50 x 2
   ball_ID color
     <int> <chr>
 1    1193 white
 2    1293 white
 3    1658 red  
 4     331 red  
 5    1020 white
 6    2224 red  
 7     887 white
 8    1008 red  
 9     514 white
10     993 red  
# ... with 40 more rows
```
…
---

# Building up to statistical inference!

```r
library(infer)
bowl_sample %>% 
  specify(formula = color ~ NULL, success = "red")
```

```
Response:  color 
 Response Type:  factor 
# A tibble: 50 x 1
   color
   <fct>
 1 white
 2 white
 3 red  
 4 red  
 5 white
 6 red  
 7 white
 8 red  
 9 white
10 red  
# ... with 40 more rows
```
---

# Bootstrapping?

```r
library(infer)
( bootstrap_samples <- bowl_sample %>% 
  specify(formula = color ~ NULL, success = "red") %>% 
  generate(reps = 48, type = "bootstrap") )
```

```
Response:  color 
 Response Type:  factor 
# A tibble: 2,400 x 2
# Groups:   replicate [48]
   replicate color
       <int> <fct>
 1         1 red  
 2         1 red  
 3         1 white
 4         1 white
 5         1 red  
 6         1 white
 7         1 white
 8         1 white
 9         1 red  
10         1 red  
# ... with 2,390 more rows
```
…
---

## Bootstrap statistics

```r
bowl_sample %>% 
  specify(formula = color ~ NULL, success = "red") %>% 
  generate(reps = 48, type = "bootstrap") %>% 
  calculate(stat = "prop")
```

```
Response:  color 
 Response Type:  factor 
# A tibble: 48 x 2
   replicate  stat
       <int> <dbl>
 1         1 0.360
 2         2 0.280
 3         3 0.440
 4         4 0.240
 5         5 0.400
 6         6 0.300
 7         7 0.300
 8         8 0.400
 9         9 0.400
10        10 0.360
# ... with 38 more rows
```
…
---

# 1000 parallel universes

.pull-left[

```
Response:  yawn 
 Response Type:  factor 
Explanatory:  group 
 Explanatory Type:  factor 
Null Hypothesis:  independence 
# A tibble: 1,000 x 2
   replicate    stat
       <int>   <dbl>
 1         1 -0.140 
 2         2 -0.0478
 3         3 -0.0478
 4         4 -0.0478
 5         5 -0.140 
 6         6  0.228 
 7         7 -0.140 
 8         8  0.136 
 9         9 -0.232 
10        10  0.0441
# ... with 990 more rows
```
…
