Tidyverse Tools in R for Data Science and Statistical Inference
…
.footer[Slides available at http://bit.ly/ochin-ismay &emsp; &emsp; &emsp; [Return to Table of Contents](#toc)]

---

## Get summary information quickly and readably

```r
bakeoff %>% 
  filter(!is.na(us_season)) %>% 
  count(series, episode)
```

```
# A tibble: 40 x 3
   series episode     n
    <int>   <int> <int>
 1      4       1    13
 2      4       2    12
 3      4       3    11
 4      4       4     9
 5      4       5     8
 6      4       6     7
 7      4       7     6
 8      4       8     5
 9      4       9     4
10      4      10     3
# ... with 30 more rows
```
…
# Some tidying and cleaning

```r
# Gather and count episodes
tidy_ratings <- ratings %>%
    gather(key = "episode", value = "viewers_7day", -series, 
           na.rm = TRUE) %>% 
    arrange(series, episode) %>% 
    mutate(episode_count = row_number())
tidy_ratings
```

```
# A tibble: 74 x 4
   series episode viewers_7day episode_count
   <fct>  <chr>          <dbl>         <int>
 1 1      e1              2.24             1
 2 1      e2              3                2
 3 1      e3              3                3
 4 1      e4              2.6              4
 5 1      e5              3.03             5
 6 1      e6              2.75             6
 7 2      e1              3.1              7
 8 2      e2              3.53             8
 9 2      e3              3.82             9
10 2      e4              3.6             10
# ... with 64 more rows
```
…
.footer[Slides available at http://bit.ly/ochin-ismay &emsp; &emsp; &emsp; [Return to Table of Contents](#toc)]

---

## Get the data - More information on [ModernDive](http://moderndive.netlify.com/7-multiple-regression.html)

```r
download.file("http://bit.ly/evals-rds", destfile = "data/evals.rds")
( evals <- read_rds("data/evals.rds") )
```

```
# A tibble: 463 x 4
   score bty_avg   age gender
   <dbl>   <dbl> <int> <fct> 
 1   4.7    5       36 female
 2   4.1    5       36 female
 3   3.9    5       36 female
 4   4.8    5       36 female
 5   4.6    3       59 male  
 6   4.3    3       59 male  
 7   2.8    3       59 male  
 8   4.1    3.33    51 male  
 9   3.4    3.33    51 male  
10   4.5    3.17    40 female
# ... with 453 more rows
```
…
