Creating the fivethirtyeight R package
…
---

## Hmmmf...

```r
police_locals <- read_csv("https://raw.githubusercontent.com/fivethirtyeight/data/master/police-locals/police-locals.csv")
police_locals
```

```
# A tibble: 75 x 8
           city police_force_size       all      white `non-white`
          <chr>             <int>     <dbl>      <dbl>       <dbl>
 1     New York             32300 0.6179567 0.44638656   0.7644189
 2      Chicago             12120 0.8750000 0.87196262   0.8774003
 3  Los Angeles             10100 0.2282178 0.15277778   0.2638484
 4   Washington              9340 0.1156317 0.05677419   0.1573651
 5      Houston              7700 0.2922078 0.17373461   0.3992583
 6 Philadelphia              6045 0.8354012 0.77689873   0.8994801
 7      Phoenix              4475 0.3117318 0.27080182   0.4273504
 8    San Diego              4460 0.3621076 0.37298387   0.3484848
 9       Dallas              3605 0.1914008 0.17150396   0.2134503
10      Detroit              3265 0.3705972 0.08196721   0.5427873
# ... with 65 more rows, and 3 more variables: black <chr>,
#   hispanic <chr>, asian <chr>
```

---

## We want to be able to do this!

```r
library(fivethirtyeight)
police_locals
```

```
# A tibble: 75 x 8
           city force_size       all      white non_white     black
          <chr>      <int>     <dbl>      <dbl>     <dbl>     <dbl>
 1     New York      32300 0.6179567 0.44638656 0.7644189 0.7708914
 2      Chicago      12120 0.8750000 0.87196262 0.8774003 0.8974057
 3  Los Angeles      10100 0.2282178 0.15277778 0.2638484 0.3873874
 4   Washington       9340 0.1156317 0.05677419 0.1573651 0.1701891
 5      Houston       7700 0.2922078 0.17373461 0.3992583 0.3663793
 6 Philadelphia       6045 0.8354012 0.77689873 0.8994801 0.9246575
 7      Phoenix       4475 0.3117318 0.27080182 0.4273504 0.5217391
 8    San Diego       4460 0.3621076 0.37298387 0.3484848 0.5384615
 9       Dallas       3605 0.1914008 0.17150396 0.2134503 0.2146341
10      Detroit       3265 0.3705972 0.08196721 0.5427873 0.5680000
# ... with 65 more rows, and 2 more variables: hispanic <dbl>, asian <dbl>
```
…
