Statistical Inference: A Tidy Approach
…
```
    stop_type follow lead single
     complete     76   38    151
 not_complete     22    5     25
```

---

### Permute the sample data <br> - Shuffle `stop_type` across `vehicle_type`

```
# A tibble: 317 x 2
   stop_type    vehicle_type
   <fct>        <fct>       
 1 complete     follow      
 2 not_complete follow      
 3 complete     follow      
 4 not_complete single      
 5 complete     single      
 6 not_complete follow      
 7 not_complete single      
 8 complete     follow      
 9 not_complete lead        
10 complete     lead        
# ... with 307 more rows
```
…
```r
perm2 %>% infer::chisq_stat(vehicle_type ~ stop_type)
```

```
       stat
1 0.3604528
```

---

## What does the distribution of multiple repetitions of the permuted data look like?

```
# A tibble: 1,000 x 2
   replicate  stat
       <int> <dbl>
 1         1 1.05 
 2         2 7.24 
 3         3 0.253
 4         4 2.16 
 5         5 1.60 
 6         6 3.95 
 7         7 1.94 
 8         8 1.68 
 9         9 0.242
10        10 3.26 
# ... with 990 more rows
```
…
.footer[Slides available at <http://bit.ly/infer-useR> <br> Package webpage at <https://infer.netlify.com>]

---

```r
library(infer)
car_stop %>% 
  specify(stop_type ~ vehicle_type) %>% 
  hypothesize(null = "independence") %>% 
  generate(reps = 1000, type = "permute") %>% 
  calculate(stat = "Chisq")
```

```
# A tibble: 1,000 x 2
   replicate  stat
       <int> <dbl>
 1         1 0.509
 2         2 0.760
 3         3 1.79 
 4         4 1.83 
 5         5 0.525
 6         6 4.74 
 7         7 1.11 
 8         8 2.51 
 9         9 1.11 
10        10 0.421
# ... with 990 more rows
```
…
